<svg width="28" height="28" viewBox="0 0 28 28" fill="none" xmlns="http://www.w3.org/2000/svg">
<circle cx="14" cy="14" r="14" fill="white"/>
<path d="M6.5 14C7.34118 14 8.02941 13.37 8.02941 12.6H4.97059C4.97059 13.37 5.65882 14 6.5 14ZM11.4706 9.8V5.95C11.4706 3.78 9.86471 2.03 7.64706 1.54V1.05C7.64706 0.49 7.11176 0 6.5 0C5.88824 0 5.35294 0.49 5.35294 1.05V1.54C3.13529 2.03 1.52941 3.78 1.52941 5.95V9.8L0 11.2V11.9H13V11.2L11.4706 9.8Z" transform="translate(8 7)" fill="#101E52"/>
</svg>
